---------------------------------------------------------
POSTDATA:

/Applications/MAMP/tmp/php/phpDa8jq0
uploads/image_3.jpg
HTML single POST:

Pre-type
Post-type
file: uploads/image_3.jpg
Json Data Returned:
{"file":"uploads\/image_3.jpg","name":"image_3.jpg","width":null,"height":null,"type":"jpg","size":false}
---------------------------------------------------------
POSTDATA:

/Applications/MAMP/tmp/php/phpb7AXR9
uploads/image_3.jpg
HTML single POST:

Pre-type
Post-type
file: uploads/image_3.jpg
Json Data Returned:
{"file":"uploads\/image_3.jpg","name":"image_3.jpg","width":null,"height":null,"type":"jpg","size":false}
---------------------------------------------------------
POSTDATA:

/Applications/MAMP/tmp/php/phpTl6184
uploads/image_4.jpg
HTML single POST:

Pre-type
Post-type
file: uploads/image_4.jpg
Json Data Returned:
{"file":"uploads\/image_4.jpg","name":"image_4.jpg","width":null,"height":null,"type":"jpg","size":false}
---------------------------------------------------------
POSTDATA:

/Applications/MAMP/tmp/php/phpzR8dqT
uploads/image_3.jpg
HTML single POST:

Pre-type
Post-type
file: uploads/image_3.jpg
Json Data Returned:
{"file":"uploads\/image_3.jpg","name":"image_3.jpg","width":null,"height":null,"type":"jpg","size":false}
